{
    "1123a434.cc78fc": {},
    "90ff06f5.ff6288": {
        "token": "Nzk2NTkyNjQ2MDcxNTE3MjQ1.X_aKtg.1EW4rmMiJtTLTThePl_zDwCh1bc"
    },
    "1512b8af.d2d3b7": {},
    "2974d84f.cc5f48": {},
    "ea713040.41f24": {}
}